^C:\USERS\VICTOR\DOCUMENTS\VISUAL STUDIO 2015\PROJECTS\LOGGERLIB\LOGGERLIB\DEBUG\LOGGER.OBJ
/OUT:"C:\USERS\VICTOR\DOCUMENTS\VISUAL STUDIO 2015\PROJECTS\LOGGERLIB\DEBUG\LOGGERLIB.EXE" /INCREMENTAL /NOLOGO KERNEL32.LIB USER32.LIB GDI32.LIB WINSPOOL.LIB COMDLG32.LIB ADVAPI32.LIB SHELL32.LIB OLE32.LIB OLEAUT32.LIB UUID.LIB ODBC32.LIB ODBCCP32.LIB /MANIFEST /MANIFESTUAC:"level='asInvoker' uiAccess='false'" /manifest:embed /DEBUG:FASTLINK /PDB:"C:\USERS\VICTOR\DOCUMENTS\VISUAL STUDIO 2015\PROJECTS\LOGGERLIB\DEBUG\LOGGERLIB.PDB" /TLBID:1 /DYNAMICBASE /NXCOMPAT /IMPLIB:"C:\USERS\VICTOR\DOCUMENTS\VISUAL STUDIO 2015\PROJECTS\LOGGERLIB\DEBUG\LOGGERLIB.LIB" /MACHINE:X86 DEBUG\LOGGER.OBJ
^C:\USERS\VICTOR\DOCUMENTS\VISUAL STUDIO 2015\PROJECTS\LOGGERLIB\LOGGERLIB\DEBUG\BASESINK.OBJ|C:\USERS\VICTOR\DOCUMENTS\VISUAL STUDIO 2015\PROJECTS\LOGGERLIB\LOGGERLIB\DEBUG\EXAMPLE.OBJ|C:\USERS\VICTOR\DOCUMENTS\VISUAL STUDIO 2015\PROJECTS\LOGGERLIB\LOGGERLIB\DEBUG\FILESINK.OBJ|C:\USERS\VICTOR\DOCUMENTS\VISUAL STUDIO 2015\PROJECTS\LOGGERLIB\LOGGERLIB\DEBUG\LOGGER.OBJ|C:\USERS\VICTOR\DOCUMENTS\VISUAL STUDIO 2015\PROJECTS\LOGGERLIB\LOGGERLIB\DEBUG\LOGGERCORE.OBJ|C:\USERS\VICTOR\DOCUMENTS\VISUAL STUDIO 2015\PROJECTS\LOGGERLIB\LOGGERLIB\DEBUG\TESTSINK.OBJ
/OUT:"C:\USERS\VICTOR\DOCUMENTS\VISUAL STUDIO 2015\PROJECTS\LOGGERLIB\DEBUG\LOGGERLIB.EXE" /INCREMENTAL /NOLOGO KERNEL32.LIB USER32.LIB GDI32.LIB WINSPOOL.LIB COMDLG32.LIB ADVAPI32.LIB SHELL32.LIB OLE32.LIB OLEAUT32.LIB UUID.LIB ODBC32.LIB ODBCCP32.LIB /MANIFEST /MANIFESTUAC:"level='asInvoker' uiAccess='false'" /manifest:embed /DEBUG:FASTLINK /PDB:"C:\USERS\VICTOR\DOCUMENTS\VISUAL STUDIO 2015\PROJECTS\LOGGERLIB\DEBUG\LOGGERLIB.PDB" /TLBID:1 /DYNAMICBASE /NXCOMPAT /IMPLIB:"C:\USERS\VICTOR\DOCUMENTS\VISUAL STUDIO 2015\PROJECTS\LOGGERLIB\DEBUG\LOGGERLIB.LIB" /MACHINE:X86 DEBUG\BASESINK.OBJDEBUG\EXAMPLE.OBJDEBUG\FILESINK.OBJDEBUG\LOGGER.OBJDEBUG\LOGGERCORE.OBJDEBUG\TESTSINK.OBJ
