^C:\USERS\VICTOR\DOCUMENTS\VISUAL STUDIO 2015\PROJECTS\LOGGERLIB\LOGGERLIB\DEBUG\BASESINK.OBJ|C:\USERS\VICTOR\DOCUMENTS\VISUAL STUDIO 2015\PROJECTS\LOGGERLIB\LOGGERLIB\DEBUG\EXAMPLE.OBJ|C:\USERS\VICTOR\DOCUMENTS\VISUAL STUDIO 2015\PROJECTS\LOGGERLIB\LOGGERLIB\DEBUG\FILESINK.OBJ|C:\USERS\VICTOR\DOCUMENTS\VISUAL STUDIO 2015\PROJECTS\LOGGERLIB\LOGGERLIB\DEBUG\LOGGER.OBJ|C:\USERS\VICTOR\DOCUMENTS\VISUAL STUDIO 2015\PROJECTS\LOGGERLIB\LOGGERLIB\DEBUG\LOGGERCORE.OBJ|C:\USERS\VICTOR\DOCUMENTS\VISUAL STUDIO 2015\PROJECTS\LOGGERLIB\LOGGERLIB\DEBUG\TESTSINK.OBJ
C:\USERS\VICTOR\DOCUMENTS\VISUAL STUDIO 2015\PROJECTS\LOGGERLIB\DEBUG\LOGGERLIB.ILK
C:\USERS\VICTOR\DOCUMENTS\VISUAL STUDIO 2015\PROJECTS\LOGGERLIB\DEBUG\LOGGERLIB.EXE
C:\USERS\VICTOR\DOCUMENTS\VISUAL STUDIO 2015\PROJECTS\LOGGERLIB\DEBUG\LOGGERLIB.PDB
